$date
        2020-Aug-21 11:52:45
$end
$version
        Vivado v2018.2 (64-bit)
$end
$timescale
        1ps
$end
$scope module dut $end
$var reg 128 " pcie_sub_i/RAM_doutb [127:0] $end
$var reg 128 D" pcie_sub_i/controller_0_data_out [127:0] $end
$var reg 32 f# pcie_sub_i/controller_0_addr_out [31:0] $end
$var reg 32 ($ pcie_sub_i/Net [31:0] $end
$var reg 16 H$ pcie_sub_i/controller_0_wr_en_ram [15:0] $end
$var reg 1 X$ pcie_sub_i/controller_0_done_encrypt $end
$var reg 1 Y$ pcie_sub_i/axi_gpio_0_gpio2_io_o $end
$var reg 128 Z$ pcie_sub_i/CRYPTO_CONTROLER_info_data [127:0] $end
$var reg 1 |% pcie_sub_i/CRYPTO_CONTROLER_rd_data_flag $end
$var reg 16 }% pcie_sub_i/CRYPTO_CONTROLER_b_in [15:0] $end
$var reg 128 /& pcie_sub_i/CRYPTO_CONTROLER_z_out [127:0] $end
$var reg 128 Q' pcie_sub_i/CRYPTO_CONTROLER_z_in [127:0] $end
$var reg 128 s( pcie_sub_i/CRYPTO_CONTROLER_v_in [127:0] $end
$var reg 128 7* pcie_sub_i/CRYPTO_CONTROLER_EKY_0 [127:0] $end
$var reg 128 Y+ pcie_sub_i/CRYPTO_CONTROLER_gfm_input1 [127:0] $end
$var reg 4 {, pcie_sub_i/CRYPTO_CONTROLER_state [3:0] $end
$var reg 10 !- pcie_sub_i/CRYPTO_CONTROLER_state_core [9:0] $end
$var reg 11 +- pcie_sub_i/CRYPTO_CONTROLER_leng_ct [10:0] $end
$var reg 11 6- pcie_sub_i/CRYPTO_CONTROLER_leng_msg [10:0] $end
$var reg 2 A- pcie_sub_i/CRYPTO_CONTROLER_leng_key [1:0] $end
$var reg 1 C- _TRIGGER $end
$var reg 1 D- _WINDOW $end
$var reg 1 E- _GAP $end
$upscope $end
$enddefinitions $end
